{
	"info": {
		"_postman_id": "c82124cd-e307-43c1-bb9d-e6efe02fdb94",
		"name": "SD-P5",
		"schema": "https://schema.getpostman.com/json/collection/v2.1.0/collection.json"
	},
	"item": [
		{
			"name": "User",
			"item": [
				{
					"name": "api/user",
					"request": {
						"method": "GET",
						"header": [],
						"url": {
							"raw": "https://localhost:3000/api/user",
							"protocol": "https",
							"host": [
								"localhost"
							],
							"port": "3000",
							"path": [
								"api",
								"user"
							]
						}
					},
					"response": []
				},
				{
					"name": "api/user/{id}",
					"request": {
						"method": "GET",
						"header": [],
						"url": {
							"raw": "https://localhost:3000/api/user/111111111",
							"protocol": "https",
							"host": [
								"localhost"
							],
							"port": "3000",
							"path": [
								"api",
								"user",
								"111111111"
							]
						}
					},
					"response": []
				},
				{
					"name": "api/user",
					"request": {
						"method": "POST",
						"header": [],
						"url": {
							"raw": "http://localhost:3000/api/user",
							"protocol": "http",
							"host": [
								"localhost"
							],
							"port": "3000",
							"path": [
								"api",
								"user"
							]
						}
					},
					"response": []
				},
				{
					"name": "api/user/{id}",
					"request": {
						"method": "PUT",
						"header": [],
						"url": {
							"raw": "http://localhost:3000/api/user/621df266634921c15c576d75",
							"protocol": "http",
							"host": [
								"localhost"
							],
							"port": "3000",
							"path": [
								"api",
								"user",
								"621df266634921c15c576d75"
							]
						}
					},
					"response": []
				},
				{
					"name": "api/user/{id}",
					"request": {
						"method": "DELETE",
						"header": [],
						"url": {
							"raw": "http://localhost:3000/api/user/621df266634921c15c576d75",
							"protocol": "http",
							"host": [
								"localhost"
							],
							"port": "3000",
							"path": [
								"api",
								"user",
								"621df266634921c15c576d75"
							]
						}
					},
					"response": []
				}
			]
		},
		{
			"name": "Auth",
			"item": [
				{
					"name": "api/auth",
					"request": {
						"method": "GET",
						"header": [],
						"url": {
							"raw": "https://localhost:3000/api/auth",
							"protocol": "https",
							"host": [
								"localhost"
							],
							"port": "3000",
							"path": [
								"api",
								"auth"
							]
						}
					},
					"response": []
				},
				{
					"name": "api/auth/me",
					"request": {
						"method": "GET",
						"header": [],
						"url": {
							"raw": "https://localhost:3000/api/auth/me",
							"protocol": "https",
							"host": [
								"localhost"
							],
							"port": "3000",
							"path": [
								"api",
								"auth",
								"me"
							]
						}
					},
					"response": []
				},
				{
					"name": "api/auth",
					"request": {
						"method": "POST",
						"header": [],
						"url": {
							"raw": "https://localhost:3000/api/auth",
							"protocol": "https",
							"host": [
								"localhost"
							],
							"port": "3000",
							"path": [
								"api",
								"auth"
							]
						}
					},
					"response": []
				},
				{
					"name": "api/user",
					"request": {
						"method": "POST",
						"header": [],
						"url": {
							"raw": "https://localhost:3000/api/user",
							"protocol": "https",
							"host": [
								"localhost"
							],
							"port": "3000",
							"path": [
								"api",
								"user"
							]
						}
					},
					"response": []
				}
			]
		}
	]
}